Assignment1/transcript
# vsim -c top 
# Start time: 20:05:57 on Sep 30,2021
# Loading sv_std.std
# Loading work.top
# Loading work.ALU_iface
# Loading std.standard
# Loading std.textio(body)
# Loading ieee.std_logic_1164(body)
# Loading work.alu(behavioural)
# unsigned
# Starting test: resetting...
# Initial setup...
# Starting tests...
# --- a = 1, b = 0, out = 1
# --- a = 1, b = 0, out = 1
# --- a = 1, b = 1, out = 2
# --- a = 1, b = 2, out = 3
# --- a = 1, b = 3, out = 4
# --- a = 1, b = 4, out = 5
# --- a = 1, b = 5, out = 6
# --- a = 1, b = 6, out = 7
# --- a = 1, b = 7, out = 8
# --- a = 1, b = 8, out = 9
# --- a = 1, b = 9, out = 10
# --- a = 1, b = 10, out = 11
# --- a = 1, b = 11, out = 12
# --- a = 1, b = 12, out = 13
# --- a = 1, b = 13, out = 14
# --- a = 1, b = 14, out = 15
# --- a = 1, b = 15, out = 16
# --- a = 1, b = 16, out = 17
# --- a = 1, b = 17, out = 18
# --- a = 1, b = 18, out = 19
# --- a = 1, b = 19, out = 20
# --- a = 1, b = 20, out = 21
# --- a = 1, b = 21, out = 22
# --- a = 1, b = 22, out = 23
# --- a = 1, b = 23, out = 24
# --- a = 1, b = 24, out = 25
# --- a = 1, b = 25, out = 26
# --- a = 1, b = 26, out = 27
# --- a = 1, b = 27, out = 28
# --- a = 1, b = 28, out = 29
# --- a = 1, b = 29, out = 30
# --- a = 1, b = 30, out = 31
# --- a = 1, b = 31, out = 32
# --- a = 1, b = 32, out = 33
# --- a = 1, b = 33, out = 34
# --- a = 1, b = 34, out = 35
# --- a = 1, b = 35, out = 36
# --- a = 1, b = 36, out = 37
# --- a = 1, b = 37, out = 38
# --- a = 1, b = 38, out = 39
# --- a = 1, b = 39, out = 40
# --- a = 1, b = 40, out = 41
# --- a = 1, b = 41, out = 42
# --- a = 1, b = 42, out = 43
# --- a = 1, b = 43, out = 44
# --- a = 1, b = 44, out = 45
# --- a = 1, b = 45, out = 46
# --- a = 1, b = 46, out = 47
# --- a = 1, b = 47, out = 48
# --- a = 1, b = 48, out = 49
# --- a = 1, b = 49, out = 50
# --- a = 1, b = 50, out = 51
# --- a = 1, b = 51, out = 52
# --- a = 1, b = 52, out = 53
# --- a = 1, b = 53, out = 54
# --- a = 1, b = 54, out = 55
# --- a = 1, b = 55, out = 56
# --- a = 1, b = 56, out = 57
# --- a = 1, b = 57, out = 58
# --- a = 1, b = 58, out = 59
# --- a = 1, b = 59, out = 60
# --- a = 1, b = 60, out = 61
# --- a = 1, b = 61, out = 62
# --- a = 1, b = 62, out = 63
# --- a = 1, b = 63, out = 64
# --- a = 1, b = 64, out = 65
# --- a = 1, b = 65, out = 66
# --- a = 1, b = 66, out = 67
# --- a = 1, b = 67, out = 68
# --- a = 1, b = 68, out = 69
# --- a = 1, b = 69, out = 70
# --- a = 1, b = 70, out = 71
# --- a = 1, b = 71, out = 72
# --- a = 1, b = 72, out = 73
# --- a = 1, b = 73, out = 74
# --- a = 1, b = 74, out = 75
# --- a = 1, b = 75, out = 76
# --- a = 1, b = 76, out = 77
# --- a = 1, b = 77, out = 78
# --- a = 1, b = 78, out = 79
# --- a = 1, b = 79, out = 80
# --- a = 1, b = 80, out = 81
# --- a = 1, b = 81, out = 82
# --- a = 1, b = 82, out = 83
# --- a = 1, b = 83, out = 84
# --- a = 1, b = 84, out = 85
# --- a = 1, b = 85, out = 86
# --- a = 1, b = 86, out = 87
# --- a = 1, b = 87, out = 88
# --- a = 1, b = 88, out = 89
# --- a = 1, b = 89, out = 90
# --- a = 1, b = 90, out = 91
# --- a = 1, b = 91, out = 92
# --- a = 1, b = 92, out = 93
# --- a = 1, b = 93, out = 94
# --- a = 1, b = 94, out = 95
# --- a = 1, b = 95, out = 96
# --- a = 1, b = 96, out = 97
# --- a = 1, b = 97, out = 98
# --- a = 1, b = 98, out = 99
# --- a = 1, b = 99, out = 100
# --- a = 1, b = 100, out = 101
# --- a = 1, b = 101, out = 102
# --- a = 1, b = 102, out = 103
# --- a = 1, b = 103, out = 104
# --- a = 1, b = 104, out = 105
# --- a = 1, b = 105, out = 106
# --- a = 1, b = 106, out = 107
# --- a = 1, b = 107, out = 108
# --- a = 1, b = 108, out = 109
# --- a = 1, b = 109, out = 110
# --- a = 1, b = 110, out = 111
# --- a = 1, b = 111, out = 112
# --- a = 1, b = 112, out = 113
# --- a = 1, b = 113, out = 114
# --- a = 1, b = 114, out = 115
# --- a = 1, b = 115, out = 116
# --- a = 1, b = 116, out = 117
# --- a = 1, b = 117, out = 118
# --- a = 1, b = 118, out = 119
# --- a = 1, b = 119, out = 120
# --- a = 1, b = 120, out = 121
# --- a = 1, b = 121, out = 122
# --- a = 1, b = 122, out = 123
# --- a = 1, b = 123, out = 124
# --- a = 1, b = 124, out = 125
# --- a = 1, b = 125, out = 126
# --- a = 1, b = 126, out = 127
# --- a = 1, b = 127, out = 128
# --- a = 1, b = 128, out = 129
# --- a = 1, b = 129, out = 130
# --- a = 1, b = 130, out = 131
# --- a = 1, b = 131, out = 132
# --- a = 1, b = 132, out = 133
# --- a = 1, b = 133, out = 134
# --- a = 1, b = 134, out = 135
# --- a = 1, b = 135, out = 136
# --- a = 1, b = 136, out = 137
# --- a = 1, b = 137, out = 138
# --- a = 1, b = 138, out = 139
# --- a = 1, b = 139, out = 140
# --- a = 1, b = 140, out = 141
# --- a = 1, b = 141, out = 142
# --- a = 1, b = 142, out = 143
# --- a = 1, b = 143, out = 144
# --- a = 1, b = 144, out = 145
# --- a = 1, b = 145, out = 146
# --- a = 1, b = 146, out = 147
# --- a = 1, b = 147, out = 148
# --- a = 1, b = 148, out = 149
# --- a = 1, b = 149, out = 150
# --- a = 1, b = 150, out = 151
# --- a = 1, b = 151, out = 152
# --- a = 1, b = 152, out = 153
# --- a = 1, b = 153, out = 154
# --- a = 1, b = 154, out = 155
# --- a = 1, b = 155, out = 156
# --- a = 1, b = 156, out = 157
# --- a = 1, b = 157, out = 158
# --- a = 1, b = 158, out = 159
# --- a = 1, b = 159, out = 160
# --- a = 1, b = 160, out = 161
# --- a = 1, b = 161, out = 162
# --- a = 1, b = 162, out = 163
# --- a = 1, b = 163, out = 164
# --- a = 1, b = 164, out = 165
# --- a = 1, b = 165, out = 166
# --- a = 1, b = 166, out = 167
# --- a = 1, b = 167, out = 168
# --- a = 1, b = 168, out = 169
# --- a = 1, b = 169, out = 170
# --- a = 1, b = 170, out = 171
# --- a = 1, b = 171, out = 172
# --- a = 1, b = 172, out = 173
# --- a = 1, b = 173, out = 174
# --- a = 1, b = 174, out = 175
# --- a = 1, b = 175, out = 176
# --- a = 1, b = 176, out = 177
# --- a = 1, b = 177, out = 178
# --- a = 1, b = 178, out = 179
# --- a = 1, b = 179, out = 180
# --- a = 1, b = 180, out = 181
# --- a = 1, b = 181, out = 182
# --- a = 1, b = 182, out = 183
# --- a = 1, b = 183, out = 184
# --- a = 1, b = 184, out = 185
# --- a = 1, b = 185, out = 186
# --- a = 1, b = 186, out = 187
# --- a = 1, b = 187, out = 188
# --- a = 1, b = 188, out = 189
# --- a = 1, b = 189, out = 190
# --- a = 1, b = 190, out = 191
# --- a = 1, b = 191, out = 192
# --- a = 1, b = 192, out = 193
# --- a = 1, b = 193, out = 194
# --- a = 1, b = 194, out = 195
# --- a = 1, b = 195, out = 196
# --- a = 1, b = 196, out = 197
# --- a = 1, b = 197, out = 198
# --- a = 1, b = 198, out = 199
# --- a = 1, b = 199, out = 200
# --- a = 1, b = 200, out = 201
# --- a = 1, b = 201, out = 202
# --- a = 1, b = 202, out = 203
# --- a = 1, b = 203, out = 204
# --- a = 1, b = 204, out = 205
# --- a = 1, b = 205, out = 206
# --- a = 1, b = 206, out = 207
# --- a = 1, b = 207, out = 208
# --- a = 1, b = 208, out = 209
# --- a = 1, b = 209, out = 210
# --- a = 1, b = 210, out = 211
# --- a = 1, b = 211, out = 212
# --- a = 1, b = 212, out = 213
# --- a = 1, b = 213, out = 214
# --- a = 1, b = 214, out = 215
# --- a = 1, b = 215, out = 216
# --- a = 1, b = 216, out = 217
# --- a = 1, b = 217, out = 218
# --- a = 1, b = 218, out = 219
# --- a = 1, b = 219, out = 220
# --- a = 1, b = 220, out = 221
# --- a = 1, b = 221, out = 222
# --- a = 1, b = 222, out = 223
# --- a = 1, b = 223, out = 224
# --- a = 1, b = 224, out = 225
# --- a = 1, b = 225, out = 226
# --- a = 1, b = 226, out = 227
# --- a = 1, b = 227, out = 228
# --- a = 1, b = 228, out = 229
# --- a = 1, b = 229, out = 230
# --- a = 1, b = 230, out = 231
# --- a = 1, b = 231, out = 232
# --- a = 1, b = 232, out = 233
# --- a = 1, b = 233, out = 234
# --- a = 1, b = 234, out = 235
# --- a = 1, b = 235, out = 236
# --- a = 1, b = 236, out = 237
# --- a = 1, b = 237, out = 238
# --- a = 1, b = 238, out = 239
# --- a = 1, b = 239, out = 240
# --- a = 1, b = 240, out = 241
# --- a = 1, b = 241, out = 242
# --- a = 1, b = 242, out = 243
# --- a = 1, b = 243, out = 244
# --- a = 1, b = 244, out = 245
# --- a = 1, b = 245, out = 246
# --- a = 1, b = 246, out = 247
# --- a = 1, b = 247, out = 248
# --- a = 1, b = 248, out = 249
# --- a = 1, b = 249, out = 250
# --- a = 1, b = 250, out = 251
# --- a = 1, b = 251, out = 252
# --- a = 1, b = 252, out = 253
# --- a = 1, b = 253, out = 254
# --- a = 1, b = 254, out = 255
# Ending tests...
# End time: 20:06:08 on Sep 30,2021, Elapsed time: 0:00:11
# Errors: 0, Warnings: 0
